qsim_apr/ref_qsim_apr/tb_down_counter/down_counter.vcd
$date
	Mon Jan 20 10:54:19 2025
$end
$version
	ModelSim Version 2024.2
$end
$timescale
	1ps
$end

$scope module testbench $end

$scope module down_counter_inst $end
$var wire 1 ! clk $end
$var wire 1 " rstn $end
$var wire 1 # start $end
$var wire 1 $ reset $end
$var wire 1 % counter_out [7] $end
$var wire 1 & counter_out [6] $end
$var wire 1 ' counter_out [5] $end
$var wire 1 ( counter_out [4] $end
$var wire 1 ) counter_out [3] $end
$var wire 1 * counter_out [2] $end
$var wire 1 + counter_out [1] $end
$var wire 1 , counter_out [0] $end
$var wire 1 - VDD $end
$var wire 1 . VSS $end
$var wire 1 / FE_PHN25_n70 $end
$var wire 1 0 FE_PHN24_n100 $end
$var wire 1 1 FE_PHN23_n90 $end
$var wire 1 2 FE_PHN22_n6 $end
$var wire 1 3 FE_PHN21_n5 $end
$var wire 1 4 FE_PHN20_n110 $end
$var wire 1 5 FE_PHN19_n80 $end
$var wire 1 6 FE_PHN18_n120 $end
$var wire 1 7 FE_PHN17_n2 $end
$var wire 1 8 FE_PHN15_counter_out_7 $end
$var wire 1 9 FE_PHN13_counter_out_6 $end
$var wire 1 : FE_PHN11_counter_out_3 $end
$var wire 1 ; FE_PHN9_counter_out_4 $end
$var wire 1 < FE_PHN7_counter_out_5 $end
$var wire 1 = FE_PHN5_counter_out_2 $end
$var wire 1 > FE_PHN3_counter_out_1 $end
$var wire 1 ? FE_PHN1_counter_out_0 $end
$var wire 1 @ FE_PHN0_rstn $end
$var wire 1 A CTS_2 $end
$var wire 1 B CTS_1 $end
$var wire 1 C N7 $end
$var wire 1 D N8 $end
$var wire 1 E N9 $end
$var wire 1 F N10 $end
$var wire 1 G N11 $end
$var wire 1 H N12 $end
$var wire 1 I N13 $end
$var wire 1 J n2 $end
$var wire 1 K n5 $end
$var wire 1 L n6 $end
$var wire 1 M n70 $end
$var wire 1 N n80 $end
$var wire 1 O n90 $end
$var wire 1 P n100 $end
$var wire 1 Q n110 $end
$var wire 1 R n120 $end
$var wire 1 S n130 $end
$var wire 1 T n14 $end
$var wire 1 U n15 $end
$var wire 1 V n16 $end
$var wire 1 W n17 $end
$var wire 1 X n18 $end
$var wire 1 Y n19 $end
$var wire 1 Z n20 $end
$var wire 1 [ n21 $end
$var wire 1 \ n23 $end
$var wire 1 ] n24 $end
$var wire 1 ^ n25 $end
$var wire 1 _ n26 $end
$var wire 1 ` n27 $end
$var wire 1 a n28 $end
$var wire 1 b n29 $end
$var wire 1 c n30 $end
$var wire 1 d n31 $end
$var wire 1 e n32 $end
$var wire 1 f n33 $end
$var wire 1 g n34 $end

$scope module FE_PHC25_n70 $end
$var wire 1 M I $end
$var wire 1 / Z $end
$var wire 1 - VDD $end
$var wire 1 . VSS $end
$var wire 1 h Zint $end
$upscope $end

$scope module FE_PHC24_n100 $end
$var wire 1 P I $end
$var wire 1 0 Z $end
$var wire 1 - VDD $end
$var wire 1 . VSS $end
$var wire 1 i Zint $end
$upscope $end

$scope module FE_PHC23_n90 $end
$var wire 1 O I $end
$var wire 1 1 Z $end
$var wire 1 - VDD $end
$var wire 1 . VSS $end
$var wire 1 j Zint $end
$upscope $end

$scope module FE_PHC22_n6 $end
$var wire 1 L I $end
$var wire 1 2 Z $end
$var wire 1 - VDD $end
$var wire 1 . VSS $end
$var wire 1 k Zint $end
$upscope $end

$scope module FE_PHC21_n5 $end
$var wire 1 K I $end
$var wire 1 3 Z $end
$var wire 1 - VDD $end
$var wire 1 . VSS $end
$var wire 1 l Zint $end
$upscope $end

$scope module FE_PHC20_n110 $end
$var wire 1 Q I $end
$var wire 1 4 Z $end
$var wire 1 - VDD $end
$var wire 1 . VSS $end
$var wire 1 m Zint $end
$upscope $end

$scope module FE_PHC19_n80 $end
$var wire 1 N I $end
$var wire 1 5 Z $end
$var wire 1 - VDD $end
$var wire 1 . VSS $end
$var wire 1 n Zint $end
$upscope $end

$scope module FE_PHC18_n120 $end
$var wire 1 R I $end
$var wire 1 6 Z $end
$var wire 1 - VDD $end
$var wire 1 . VSS $end
$var wire 1 o Zint $end
$upscope $end

$scope module FE_PHC17_n2 $end
$var wire 1 J I $end
$var wire 1 7 Z $end
$var wire 1 - VDD $end
$var wire 1 . VSS $end
$var wire 1 p Zint $end
$upscope $end

$scope module FE_PHC16_counter_out_7 $end
$var wire 1 8 I $end
$var wire 1 % Z $end
$var wire 1 - VDD $end
$var wire 1 . VSS $end
$var wire 1 q Zint $end
$upscope $end

$scope module FE_PHC14_counter_out_6 $end
$var wire 1 9 I $end
$var wire 1 & Z $end
$var wire 1 - VDD $end
$var wire 1 . VSS $end
$var wire 1 r Zint $end
$upscope $end

$scope module FE_PHC12_counter_out_3 $end
$var wire 1 : I $end
$var wire 1 ) Z $end
$var wire 1 - VDD $end
$var wire 1 . VSS $end
$var wire 1 s Zint $end
$upscope $end

$scope module FE_PHC10_counter_out_4 $end
$var wire 1 ; I $end
$var wire 1 ( Z $end
$var wire 1 - VDD $end
$var wire 1 . VSS $end
$var wire 1 t Zint $end
$upscope $end

$scope module FE_PHC8_counter_out_5 $end
$var wire 1 < I $end
$var wire 1 ' Z $end
$var wire 1 - VDD $end
$var wire 1 . VSS $end
$var wire 1 u Zint $end
$upscope $end

$scope module FE_PHC6_counter_out_2 $end
$var wire 1 = I $end
$var wire 1 * Z $end
$var wire 1 - VDD $end
$var wire 1 . VSS $end
$var wire 1 v Zint $end
$upscope $end

$scope module FE_PHC4_counter_out_1 $end
$var wire 1 > I $end
$var wire 1 + Z $end
$var wire 1 - VDD $end
$var wire 1 . VSS $end
$var wire 1 w Zint $end
$upscope $end

$scope module FE_PHC2_counter_out_0 $end
$var wire 1 ? I $end
$var wire 1 , Z $end
$var wire 1 - VDD $end
$var wire 1 . VSS $end
$var wire 1 x Zint $end
$upscope $end

$scope module FE_PHC0_rstn $end
$var wire 1 " I $end
$var wire 1 @ Z $end
$var wire 1 - VDD $end
$var wire 1 . VSS $end
$var wire 1 y Zint $end
$upscope $end

$scope module CTS_ccl_a_inv_00001 $end
$var wire 1 A I $end
$var wire 1 B ZN $end
$var wire 1 - VDD $end
$var wire 1 . VSS $end
$var wire 1 z ZNint $end
$upscope $end

$scope module CTS_csf_inv_00005 $end
$var wire 1 ! I $end
$var wire 1 A ZN $end
$var wire 1 - VDD $end
$var wire 1 . VSS $end
$var wire 1 { ZNint $end
$upscope $end

$scope module counter_reg_3_ $end
$var wire 1 5 D $end
$var wire 1 B CP $end
$var wire 1 Z SDN $end
$var wire 1 : Q $end
$var wire 1 - VDD $end
$var wire 1 . VSS $end
$var reg 1 | notifier $end
$var wire 1 } SDN_i $end
$var wire 1 ~ CDN $end
$var wire 1 !! Q_buf $end
$var wire 1 "! Q_pwr_net $end
$var wire 1 #! CP_check $end
$var wire 1 $! D_check $end
$var wire 1 %! CP_DEFCHK $end
$var wire 1 &! D_DEFCHK $end
$upscope $end

$scope module counter_reg_2_ $end
$var wire 1 1 D $end
$var wire 1 B CP $end
$var wire 1 Y SDN $end
$var wire 1 = Q $end
$var wire 1 - VDD $end
$var wire 1 . VSS $end
$var reg 1 '! notifier $end
$var wire 1 (! SDN_i $end
$var wire 1 )! CDN $end
$var wire 1 *! Q_buf $end
$var wire 1 +! Q_pwr_net $end
$var wire 1 ,! CP_check $end
$var wire 1 -! D_check $end
$var wire 1 .! CP_DEFCHK $end
$var wire 1 /! D_DEFCHK $end
$upscope $end

$scope module counter_reg_1_ $end
$var wire 1 0 D $end
$var wire 1 B CP $end
$var wire 1 Z SDN $end
$var wire 1 > Q $end
$var wire 1 - VDD $end
$var wire 1 . VSS $end
$var reg 1 0! notifier $end
$var wire 1 1! SDN_i $end
$var wire 1 2! CDN $end
$var wire 1 3! Q_buf $end
$var wire 1 4! Q_pwr_net $end
$var wire 1 5! CP_check $end
$var wire 1 6! D_check $end
$var wire 1 7! CP_DEFCHK $end
$var wire 1 8! D_DEFCHK $end
$upscope $end

$scope module counter_reg_0_ $end
$var wire 1 6 D $end
$var wire 1 B CP $end
$var wire 1 Y SDN $end
$var wire 1 ? Q $end
$var wire 1 - VDD $end
$var wire 1 . VSS $end
$var reg 1 9! notifier $end
$var wire 1 :! SDN_i $end
$var wire 1 ;! CDN $end
$var wire 1 <! Q_buf $end
$var wire 1 =! Q_pwr_net $end
$var wire 1 >! CP_check $end
$var wire 1 ?! D_check $end
$var wire 1 @! CP_DEFCHK $end
$var wire 1 A! D_DEFCHK $end
$upscope $end

$scope module counter_reg_4_ $end
$var wire 1 / D $end
$var wire 1 B CP $end
$var wire 1 Z SDN $end
$var wire 1 ; Q $end
$var wire 1 - VDD $end
$var wire 1 . VSS $end
$var reg 1 B! notifier $end
$var wire 1 C! SDN_i $end
$var wire 1 D! CDN $end
$var wire 1 E! Q_buf $end
$var wire 1 F! Q_pwr_net $end
$var wire 1 G! CP_check $end
$var wire 1 H! D_check $end
$var wire 1 I! CP_DEFCHK $end
$var wire 1 J! D_DEFCHK $end
$upscope $end

$scope module counter_reg_5_ $end
$var wire 1 2 D $end
$var wire 1 B CP $end
$var wire 1 Y SDN $end
$var wire 1 < Q $end
$var wire 1 - VDD $end
$var wire 1 . VSS $end
$var reg 1 K! notifier $end
$var wire 1 L! SDN_i $end
$var wire 1 M! CDN $end
$var wire 1 N! Q_buf $end
$var wire 1 O! Q_pwr_net $end
$var wire 1 P! CP_check $end
$var wire 1 Q! D_check $end
$var wire 1 R! CP_DEFCHK $end
$var wire 1 S! D_DEFCHK $end
$upscope $end

$scope module counter_reg_6_ $end
$var wire 1 3 D $end
$var wire 1 B CP $end
$var wire 1 Z SDN $end
$var wire 1 9 Q $end
$var wire 1 - VDD $end
$var wire 1 . VSS $end
$var reg 1 T! notifier $end
$var wire 1 U! SDN_i $end
$var wire 1 V! CDN $end
$var wire 1 W! Q_buf $end
$var wire 1 X! Q_pwr_net $end
$var wire 1 Y! CP_check $end
$var wire 1 Z! D_check $end
$var wire 1 [! CP_DEFCHK $end
$var wire 1 \! D_DEFCHK $end
$upscope $end

$scope module counter_reg_7_ $end
$var wire 1 4 D $end
$var wire 1 B CP $end
$var wire 1 Y SDN $end
$var wire 1 8 Q $end
$var wire 1 - VDD $end
$var wire 1 . VSS $end
$var reg 1 ]! notifier $end
$var wire 1 ^! SDN_i $end
$var wire 1 _! CDN $end
$var wire 1 `! Q_buf $end
$var wire 1 a! Q_pwr_net $end
$var wire 1 b! CP_check $end
$var wire 1 c! D_check $end
$var wire 1 d! CP_DEFCHK $end
$var wire 1 e! D_DEFCHK $end
$upscope $end

$scope module U15 $end
$var wire 1 , I $end
$var wire 1 S ZN $end
$var wire 1 - VDD $end
$var wire 1 . VSS $end
$var wire 1 f! ZNint $end
$upscope $end

$scope module U16 $end
$var wire 1 S I $end
$var wire 1 T ZN $end
$var wire 1 - VDD $end
$var wire 1 . VSS $end
$var wire 1 g! ZNint $end
$upscope $end

$scope module U17 $end
$var wire 1 $ I $end
$var wire 1 U ZN $end
$var wire 1 - VDD $end
$var wire 1 . VSS $end
$var wire 1 h! ZNint $end
$upscope $end

$scope module U18 $end
$var wire 1 U I $end
$var wire 1 V ZN $end
$var wire 1 - VDD $end
$var wire 1 . VSS $end
$var wire 1 i! ZNint $end
$upscope $end

$scope module U19 $end
$var wire 1 U I $end
$var wire 1 W ZN $end
$var wire 1 - VDD $end
$var wire 1 . VSS $end
$var wire 1 j! ZNint $end
$upscope $end

$scope module U20 $end
$var wire 1 @ I $end
$var wire 1 X ZN $end
$var wire 1 - VDD $end
$var wire 1 . VSS $end
$var wire 1 k! ZNint $end
$upscope $end

$scope module U21 $end
$var wire 1 X I $end
$var wire 1 Y ZN $end
$var wire 1 - VDD $end
$var wire 1 . VSS $end
$var wire 1 l! ZNint $end
$upscope $end

$scope module U22 $end
$var wire 1 X I $end
$var wire 1 Z ZN $end
$var wire 1 - VDD $end
$var wire 1 . VSS $end
$var wire 1 m! ZNint $end
$upscope $end

$scope module U23 $end
$var wire 1 7 I $end
$var wire 1 [ ZN $end
$var wire 1 - VDD $end
$var wire 1 . VSS $end
$var wire 1 n! ZNint $end
$upscope $end

$scope module U25 $end
$var wire 1 7 I $end
$var wire 1 \ Z $end
$var wire 1 - VDD $end
$var wire 1 . VSS $end
$var wire 1 o! Zint $end
$upscope $end

$scope module U26 $end
$var wire 1 7 I $end
$var wire 1 ] Z $end
$var wire 1 - VDD $end
$var wire 1 . VSS $end
$var wire 1 p! Zint $end
$upscope $end

$scope module U27 $end
$var wire 1 7 I $end
$var wire 1 g ZN $end
$var wire 1 - VDD $end
$var wire 1 . VSS $end
$var wire 1 q! ZNint $end
$upscope $end

$scope module U28 $end
$var wire 1 I A1 $end
$var wire 1 g A2 $end
$var wire 1 % B1 $end
$var wire 1 ] B2 $end
$var wire 1 V C $end
$var wire 1 Q Z $end
$var wire 1 - VDD $end
$var wire 1 . VSS $end
$var wire 1 r! A $end
$var wire 1 s! B $end
$var wire 1 t! Zint $end
$upscope $end

$scope module U29 $end
$var wire 1 + A1 $end
$var wire 1 T A2 $end
$var wire 1 ` Z $end
$var wire 1 - VDD $end
$var wire 1 . VSS $end
$var wire 1 u! Zint $end
$upscope $end

$scope module U30 $end
$var wire 1 H A1 $end
$var wire 1 g A2 $end
$var wire 1 & B1 $end
$var wire 1 \ B2 $end
$var wire 1 W C $end
$var wire 1 K Z $end
$var wire 1 - VDD $end
$var wire 1 . VSS $end
$var wire 1 v! A $end
$var wire 1 w! B $end
$var wire 1 x! Zint $end
$upscope $end

$scope module U31 $end
$var wire 1 G A1 $end
$var wire 1 g A2 $end
$var wire 1 ' B1 $end
$var wire 1 ] B2 $end
$var wire 1 V C $end
$var wire 1 L Z $end
$var wire 1 - VDD $end
$var wire 1 . VSS $end
$var wire 1 y! A $end
$var wire 1 z! B $end
$var wire 1 {! Zint $end
$upscope $end

$scope module U32 $end
$var wire 1 F A1 $end
$var wire 1 g A2 $end
$var wire 1 ( B1 $end
$var wire 1 \ B2 $end
$var wire 1 W C $end
$var wire 1 M Z $end
$var wire 1 - VDD $end
$var wire 1 . VSS $end
$var wire 1 |! A $end
$var wire 1 }! B $end
$var wire 1 ~! Zint $end
$upscope $end

$scope module U33 $end
$var wire 1 ^ A1 $end
$var wire 1 _ A2 $end
$var wire 1 !" B $end
$var wire 1 J ZN $end
$var wire 1 - VDD $end
$var wire 1 . VSS $end
$var wire 1 "" A1N $end
$var wire 1 #" A2N $end
$var wire 1 $" A $end
$var wire 1 %" ZNint $end
$upscope $end

$scope module U34 $end
$var wire 1 ( A1 $end
$var wire 1 ' A2 $end
$var wire 1 & A3 $end
$var wire 1 % A4 $end
$var wire 1 ^ ZN $end
$var wire 1 - VDD $end
$var wire 1 . VSS $end
$var wire 1 &" ZNint $end
$upscope $end

$scope module U35 $end
$var wire 1 , A1 $end
$var wire 1 + A2 $end
$var wire 1 * A3 $end
$var wire 1 ) A4 $end
$var wire 1 _ ZN $end
$var wire 1 - VDD $end
$var wire 1 . VSS $end
$var wire 1 '" ZNint $end
$upscope $end

$scope module U36 $end
$var wire 1 E A1 $end
$var wire 1 [ A2 $end
$var wire 1 ) B1 $end
$var wire 1 ] B2 $end
$var wire 1 V C $end
$var wire 1 N Z $end
$var wire 1 - VDD $end
$var wire 1 . VSS $end
$var wire 1 (" A $end
$var wire 1 )" B $end
$var wire 1 *" Zint $end
$upscope $end

$scope module U37 $end
$var wire 1 D A1 $end
$var wire 1 [ A2 $end
$var wire 1 * B1 $end
$var wire 1 \ B2 $end
$var wire 1 W C $end
$var wire 1 O Z $end
$var wire 1 - VDD $end
$var wire 1 . VSS $end
$var wire 1 +" A $end
$var wire 1 ," B $end
$var wire 1 -" Zint $end
$upscope $end

$scope module U38 $end
$var wire 1 C A1 $end
$var wire 1 [ A2 $end
$var wire 1 + B1 $end
$var wire 1 ] B2 $end
$var wire 1 V C $end
$var wire 1 P Z $end
$var wire 1 - VDD $end
$var wire 1 . VSS $end
$var wire 1 ." A $end
$var wire 1 /" B $end
$var wire 1 0" Zint $end
$upscope $end

$scope module U39 $end
$var wire 1 S A1 $end
$var wire 1 [ A2 $end
$var wire 1 T B1 $end
$var wire 1 \ B2 $end
$var wire 1 W C $end
$var wire 1 R Z $end
$var wire 1 - VDD $end
$var wire 1 . VSS $end
$var wire 1 1" A $end
$var wire 1 2" B $end
$var wire 1 3" Zint $end
$upscope $end

$scope module U40 $end
$var wire 1 ' I $end
$var wire 1 f ZN $end
$var wire 1 - VDD $end
$var wire 1 . VSS $end
$var wire 1 4" ZNint $end
$upscope $end

$scope module U41 $end
$var wire 1 T A1 $end
$var wire 1 + A2 $end
$var wire 1 ` B $end
$var wire 1 C ZN $end
$var wire 1 - VDD $end
$var wire 1 . VSS $end
$var wire 1 5" A1N $end
$var wire 1 6" A2N $end
$var wire 1 7" A $end
$var wire 1 8" ZNint $end
$upscope $end

$scope module U42 $end
$var wire 1 ` A1 $end
$var wire 1 * A2 $end
$var wire 1 a Z $end
$var wire 1 - VDD $end
$var wire 1 . VSS $end
$var wire 1 9" Zint $end
$upscope $end

$scope module U43 $end
$var wire 1 ` A1 $end
$var wire 1 * A2 $end
$var wire 1 a B $end
$var wire 1 D ZN $end
$var wire 1 - VDD $end
$var wire 1 . VSS $end
$var wire 1 :" A1N $end
$var wire 1 ;" A2N $end
$var wire 1 <" A $end
$var wire 1 =" ZNint $end
$upscope $end

$scope module U44 $end
$var wire 1 a A1 $end
$var wire 1 ) A2 $end
$var wire 1 b Z $end
$var wire 1 - VDD $end
$var wire 1 . VSS $end
$var wire 1 >" Zint $end
$upscope $end

$scope module U45 $end
$var wire 1 a A1 $end
$var wire 1 ) A2 $end
$var wire 1 b B $end
$var wire 1 E ZN $end
$var wire 1 - VDD $end
$var wire 1 . VSS $end
$var wire 1 ?" A1N $end
$var wire 1 @" A2N $end
$var wire 1 A" A $end
$var wire 1 B" ZNint $end
$upscope $end

$scope module U46 $end
$var wire 1 b A1 $end
$var wire 1 ( A2 $end
$var wire 1 c ZN $end
$var wire 1 - VDD $end
$var wire 1 . VSS $end
$var wire 1 C" ZNint $end
$upscope $end

$scope module U47 $end
$var wire 1 b A1 $end
$var wire 1 ( A2 $end
$var wire 1 c B $end
$var wire 1 F Z $end
$var wire 1 - VDD $end
$var wire 1 . VSS $end
$var wire 1 D" A $end
$var wire 1 E" Zint $end
$upscope $end

$scope module U48 $end
$var wire 1 c A1 $end
$var wire 1 f A2 $end
$var wire 1 d ZN $end
$var wire 1 - VDD $end
$var wire 1 . VSS $end
$var wire 1 F" ZNint $end
$upscope $end

$scope module U49 $end
$var wire 1 c A1 $end
$var wire 1 f A2 $end
$var wire 1 d B $end
$var wire 1 G ZN $end
$var wire 1 - VDD $end
$var wire 1 . VSS $end
$var wire 1 G" A $end
$var wire 1 H" ZNint $end
$upscope $end

$scope module U50 $end
$var wire 1 d A1 $end
$var wire 1 & A2 $end
$var wire 1 H ZN $end
$var wire 1 - VDD $end
$var wire 1 . VSS $end
$var wire 1 I" ZNint $end
$upscope $end

$scope module U51 $end
$var wire 1 & A1 $end
$var wire 1 d A2 $end
$var wire 1 e ZN $end
$var wire 1 - VDD $end
$var wire 1 . VSS $end
$var wire 1 J" ZNint $end
$upscope $end

$scope module U52 $end
$var wire 1 % A1 $end
$var wire 1 e A2 $end
$var wire 1 I Z $end
$var wire 1 - VDD $end
$var wire 1 . VSS $end
$var wire 1 K" Zint $end
$upscope $end

$scope module FILLER_T_1_76 $end
$var wire 1 - VDD $end
$var wire 1 . VSS $end
$upscope $end

$scope module FILLER_T_1_73 $end
$var wire 1 - VDD $end
$var wire 1 . VSS $end
$upscope $end

$scope module FILLER_T_1_72 $end
$var wire 1 - VDD $end
$var wire 1 . VSS $end
$upscope $end

$scope module FILLER_T_1_71 $end
$var wire 1 - VDD $end
$var wire 1 . VSS $end
$upscope $end

$scope module FILLER_T_1_70 $end
$var wire 1 - VDD $end
$var wire 1 . VSS $end
$upscope $end

$scope module FILLER_T_1_69 $end
$var wire 1 - VDD $end
$var wire 1 . VSS $end
$upscope $end

$scope module FILLER_T_1_65 $end
$var wire 1 - VDD $end
$var wire 1 . VSS $end
$upscope $end

$scope module FILLER_T_1_64 $end
$var wire 1 - VDD $end
$var wire 1 . VSS $end
$upscope $end

$scope module FILLER_T_1_61 $end
$var wire 1 - VDD $end
$var wire 1 . VSS $end
$upscope $end

$scope module FILLER_T_1_57 $end
$var wire 1 - VDD $end
$var wire 1 . VSS $end
$upscope $end

$scope module FILLER_T_1_55 $end
$var wire 1 - VDD $end
$var wire 1 . VSS $end
$upscope $end

$scope module FILLER_T_1_54 $end
$var wire 1 - VDD $end
$var wire 1 . VSS $end
$upscope $end

$scope module FILLER_T_1_49 $end
$var wire 1 - VDD $end
$var wire 1 . VSS $end
$upscope $end

$scope module FILLER_T_1_45 $end
$var wire 1 - VDD $end
$var wire 1 . VSS $end
$upscope $end

$scope module FILLER_T_1_44 $end
$var wire 1 - VDD $end
$var wire 1 . VSS $end
$upscope $end

$scope module FILLER_T_1_35 $end
$var wire 1 - VDD $end
$var wire 1 . VSS $end
$upscope $end

$scope module FILLER_T_1_34 $end
$var wire 1 - VDD $end
$var wire 1 . VSS $end
$upscope $end

$scope module FILLER_T_1_28 $end
$var wire 1 - VDD $end
$var wire 1 . VSS $end
$upscope $end

$scope module FILLER_T_1_25 $end
$var wire 1 - VDD $end
$var wire 1 . VSS $end
$upscope $end

$scope module FILLER_T_1_24 $end
$var wire 1 - VDD $end
$var wire 1 . VSS $end
$upscope $end

$scope module FILLER_T_1_18 $end
$var wire 1 - VDD $end
$var wire 1 . VSS $end
$upscope $end

$scope module FILLER_T_1_6 $end
$var wire 1 - VDD $end
$var wire 1 . VSS $end
$upscope $end

$scope module FILLER_T_1_4 $end
$var wire 1 - VDD $end
$var wire 1 . VSS $end
$upscope $end

$scope module FILLER_T_1_3 $end
$var wire 1 - VDD $end
$var wire 1 . VSS $end
$upscope $end
$upscope $end
$upscope $end
$enddefinitions $end
#0
$dumpvars
x|
x'!
x0!
x9!
xB!
xK!
xT!
x]!
x,
x+
x*
x)
x(
x'
x&
x%
1-
0.
x/
x0
x1
x2
x3
x4
x5
x6
x7
x8
x9
x:
x;
x<
x=
x>
x?
x@
xA
xB
xC
xD
xE
xF
xG
xH
xI
xJ
xK
xL
xM
xN
xO
xP
xQ
xR
xS
xT
xU
xV
xW
xX
xY
xZ
x[
x\
x]
x^
x_
x`
xa
xb
xc
xd
xe
xf
xg
xh
xi
xj
xk
xl
xm
xn
xo
xp
xq
xr
xs
xt
xu
xv
xw
xx
0y
xz
1{
x}
1~
x!!
x"!
x#!
x$!
1%!
1&!
x(!
1)!
x*!
x+!
x,!
x-!
1.!
1/!
x1!
12!
x3!
x4!
x5!
x6!
17!
18!
x:!
1;!
x<!
x=!
x>!
x?!
1@!
1A!
xC!
1D!
xE!
xF!
xG!
xH!
1I!
1J!
xL!
1M!
xN!
xO!
xP!
xQ!
1R!
1S!
xU!
1V!
xW!
xX!
xY!
xZ!
1[!
1\!
x^!
1_!
x`!
xa!
xb!
xc!
1d!
1e!
xf!
xg!
1h!
xi!
xj!
xk!
xl!
xm!
xn!
xo!
xp!
xq!
xr!
xs!
xt!
xu!
xv!
xw!
xx!
xy!
xz!
x{!
x|!
x}!
x~!
x""
x#"
x$"
1%"
x&"
x'"
x("
x)"
x*"
x+"
x,"
x-"
x."
x/"
x0"
x1"
x2"
x3"
x4"
x5"
x6"
x7"
x8"
x9"
x:"
x;"
x<"
x="
x>"
x?"
x@"
xA"
xB"
xC"
xD"
xE"
xF"
xG"
xH"
xI"
xJ"
xK"
0$
0#
0"
0!
0!"
$end
#10
1A
0z
#20
1J
1p
#30
0B
1U
0j!
0i!
#70
0V
0W
#210
17
0q!
1p!
1o!
0n!
#230
0g
0|!
0y!
0v!
0r!
#240
0[
01"
0."
0+"
0("
#250
1\
1]
#370
0@
1k!
#400
1X
0m!
0l!
#460
0Z
0U!
0C!
01!
0}
0Z!
0Y!
0H!
0G!
06!
05!
0$!
0#!
0\!
0[!
0J!
0I!
08!
07!
0&!
0%!
1W!
1E!
13!
1!!
1X!
1F!
14!
1"!
#470
0Y
0^!
0L!
0:!
0(!
0c!
0b!
0Q!
0P!
0?!
0>!
0-!
0,!
0e!
0d!
0S!
0R!
0A!
0@!
0/!
0.!
1`!
1N!
1<!
1*!
1a!
1O!
1=!
1+!
#570
1:
1>
19
1s
1w
1r
#580
1?
1<
18
1;
1x
1u
1q
1t
#590
1=
1v
#1080
1,
1&
1+
1)
0'"
0f!
0J"
0&"
1w!
06"
1/"
1u!
0@"
1>"
1)"
1x!
10"
1*"
#1090
1(
1%
1'
0C"
1}!
1s!
04"
1z!
1~!
1t!
1{!
#1100
0e
1*
1K"
0;"
19"
1,"
1-"
#1110
0f
0S
0_
1F"
1g!
1#"
1$"
#1120
0^
1""
#1130
0c
1b
1`
0G"
1D"
0:"
1H"
1E"
0<"
1="
#1150
1T
1a
1K
05"
12"
0?"
1l
07"
13"
0A"
18"
1B"
#1160
1d
1L
1Q
1P
1I"
1k
1m
1i
#1170
1F
1G
1I
1N
1n
#1180
1D
1O
1M
1j
1h
#1190
1E
#1200
1H
1C
#1220
1R
1o
#1340
15
#1390
16
#1620
13
#1640
14
12
#1650
10
#1660
1/
11
#5000
1!
0{
#5010
0A
1z
#5030
1B
#10000
0!
1{
1"
1y
#10010
1A
0z
#10030
0B
#10470
1@
0k!
#10500
0X
1m!
1l!
#10570
1Z
1U!
1C!
11!
1}
1Z!
1Y!
1H!
1G!
16!
15!
1$!
1#!
1\!
1[!
1J!
1I!
18!
17!
1&!
1%!
#10580
1Y
1^!
1L!
1:!
1(!
1c!
1b!
1Q!
1P!
1?!
1>!
1-!
1,!
1e!
1d!
1S!
1R!
1A!
1@!
1/!
1.!
#15000
1!
0{
#15010
0A
1z
#15030
1B
#20000
0!
1{
0"
0y
#20010
1A
0z
#20030
0B
#20370
0@
1k!
#20400
1X
0m!
0l!
#20460
0Z
0U!
0C!
01!
0}
0Z!
0Y!
0H!
0G!
06!
05!
0$!
0#!
0\!
0[!
0J!
0I!
08!
07!
0&!
0%!
#20470
0Y
0^!
0L!
0:!
0(!
0c!
0b!
0Q!
0P!
0?!
0>!
0-!
0,!
0e!
0d!
0S!
0R!
0A!
0@!
0/!
0.!
#25000
1!
0{
#25010
0A
1z
#25030
1B
#30000
0!
1{
1"
1y
#30010
1A
0z
#30030
0B
#30470
1@
0k!
#30500
0X
1m!
1l!
#30570
1Z
1U!
1C!
11!
1}
1Z!
1Y!
1H!
1G!
16!
15!
1$!
1#!
1\!
1[!
1J!
1I!
18!
17!
1&!
1%!
#30580
1Y
1^!
1L!
1:!
1(!
1c!
1b!
1Q!
1P!
1?!
1>!
1-!
1,!
1e!
1d!
1S!
1R!
1A!
1@!
1/!
1.!
#35000
1!
0{
#35010
0A
1z
#35030
1B
#40000
0!
1{
#40010
1A
0z
#40030
0B
#45000
1!
0{
#45010
0A
1z
#45030
1B
#50000
0!
1{
1#
1!"
0%"
#50010
1A
0z
#50030
0B
0J
0p
#50200
07
1q!
0p!
0o!
1n!
#50230
1[
1g
1."
1+"
1("
1|!
1y!
1v!
1r!
#50240
0\
0]
02"
0,"
0}!
0w!
0/"
0)"
0z!
0s!
03"
#50340
0R
0o
#50500
06
#55000
1!
0{
#55010
0A
1z
#55030
1B
0<!
0=!
#55120
0?
0x
#55520
0,
1f!
#55550
1S
11"
0g!
13"
#55580
0T
15"
17"
08"
#55620
0C
1R
0."
1o
00"
#55710
0P
0i
#55790
16
#56100
00
#60000
0!
1{
#60010
1A
0z
#60030
0B
#65000
1!
0{
#65010
0A
1z
#65030
1B
1<!
03!
1=!
04!
#65110
1?
1x
#65130
0>
0w
#65540
0+
16"
0u!
#65590
0`
1:"
18"
1<"
0="
#65610
1C
1,
1."
0f!
10"
#65630
0D
0+"
0-"
#65640
0S
01"
1g!
03"
#65670
1P
1i
#65680
1T
05"
1u!
#65710
0R
0o
#65720
0O
0j
#65730
1`
0:"
08"
0<"
1="
#65750
0C
0."
00"
#65780
1D
1+"
1-"
#65820
0P
0i
#65840
1O
1j
#65870
06
#70000
0!
1{
#70010
1A
0z
#70030
0B
#75000
1!
0{
#75010
0A
1z
#75030
1B
0<!
0=!
#75120
0?
0x
#75520
0,
1f!
#75550
1S
11"
0g!
13"
#75580
0T
15"
0u!
#75620
1R
1o
#75630
0`
1:"
18"
1<"
0="
#75650
1C
1."
10"
#75670
0D
0+"
0-"
#75710
1P
1i
#75760
0O
0j
#75790
16
#76150
01
#76200
10
#80000
0!
1{
#80010
1A
0z
#80030
0B
#85000
1!
0{
#85010
0A
1z
#85030
1B
1<!
13!
0*!
1=!
14!
0+!
#85110
1>
1?
1w
1x
#85130
0=
0v
#85540
0*
1;"
09"
#85610
0a
1,
1?"
1="
0f!
1A"
0B"
#85620
1+
06"
1u!
#85640
0S
1D
01"
1g!
1+"
03"
1-"
#85650
0E
0("
0*"
#85670
1`
0:"
19"
08"
#85680
1T
05"
07"
18"
#85700
1O
1j
#85710
1a
0R
0?"
0="
0o
0A"
1B"
#85740
0D
0N
0+"
0n
0-"
#85750
1E
1("
1*"
#85810
0O
0j
#85820
1N
1n
#85870
06
#90000
0!
1{
#90010
1A
0z
#90030
0B
#95000
1!
0{
#95010
0A
1z
#95030
1B
0<!
0=!
#95120
0?
0x
#95520
0,
1f!
#95550
1S
11"
0g!
13"
#95580
0T
15"
17"
08"
#95620
0C
1R
0."
1o
00"
#95710
0P
0i
#95790
16
#96100
00
#100000
0!
1{
#100010
1A
0z
#100030
0B
#105000
1!
0{
#105010
0A
1z
