qsim_apr/ref_qsim_apr/tb_dut/vcd_files/down_counter.vcd
$date
	Mon Dec 16 19:00:11 2024
$end
$version
	ModelSim Version 2024.2
$end
$timescale
	1ps
$end

$scope module testbench $end

$scope module dut_inst $end

$scope module down_counter_inst $end
$var wire 1 ! clk $end
$var wire 1 " rstn $end
$var wire 1 # start $end
$var wire 1 $ reset $end
$var wire 1 % counter_out [7] $end
$var wire 1 & counter_out [6] $end
$var wire 1 ' counter_out [5] $end
$var wire 1 ( counter_out [4] $end
$var wire 1 ) counter_out [3] $end
$var wire 1 * counter_out [2] $end
$var wire 1 + counter_out [1] $end
$var wire 1 , counter_out [0] $end
$var wire 1 - VDD $end
$var wire 1 . VSS $end
$var wire 1 / FE_PHN25_n70 $end
$var wire 1 0 FE_PHN24_n100 $end
$var wire 1 1 FE_PHN23_n90 $end
$var wire 1 2 FE_PHN22_n6 $end
$var wire 1 3 FE_PHN21_n5 $end
$var wire 1 4 FE_PHN20_n110 $end
$var wire 1 5 FE_PHN19_n80 $end
$var wire 1 6 FE_PHN18_n120 $end
$var wire 1 7 FE_PHN17_n2 $end
$var wire 1 8 FE_PHN15_counter_out_7 $end
$var wire 1 9 FE_PHN13_counter_out_6 $end
$var wire 1 : FE_PHN11_counter_out_3 $end
$var wire 1 ; FE_PHN9_counter_out_4 $end
$var wire 1 < FE_PHN7_counter_out_5 $end
$var wire 1 = FE_PHN5_counter_out_2 $end
$var wire 1 > FE_PHN3_counter_out_1 $end
$var wire 1 ? FE_PHN1_counter_out_0 $end
$var wire 1 @ FE_PHN0_rstn $end
$var wire 1 A CTS_2 $end
$var wire 1 B CTS_1 $end
$var wire 1 C N7 $end
$var wire 1 D N8 $end
$var wire 1 E N9 $end
$var wire 1 F N10 $end
$var wire 1 G N11 $end
$var wire 1 H N12 $end
$var wire 1 I N13 $end
$var wire 1 J n2 $end
$var wire 1 K n5 $end
$var wire 1 L n6 $end
$var wire 1 M n70 $end
$var wire 1 N n80 $end
$var wire 1 O n90 $end
$var wire 1 P n100 $end
$var wire 1 Q n110 $end
$var wire 1 R n120 $end
$var wire 1 S n130 $end
$var wire 1 T n14 $end
$var wire 1 U n15 $end
$var wire 1 V n16 $end
$var wire 1 W n17 $end
$var wire 1 X n18 $end
$var wire 1 Y n19 $end
$var wire 1 Z n20 $end
$var wire 1 [ n21 $end
$var wire 1 \ n23 $end
$var wire 1 ] n24 $end
$var wire 1 ^ n25 $end
$var wire 1 _ n26 $end
$var wire 1 ` n27 $end
$var wire 1 a n28 $end
$var wire 1 b n29 $end
$var wire 1 c n30 $end
$var wire 1 d n31 $end
$var wire 1 e n32 $end
$var wire 1 f n33 $end
$var wire 1 g n34 $end

$scope module FE_PHC25_n70 $end
$var wire 1 M I $end
$var wire 1 / Z $end
$var wire 1 - VDD $end
$var wire 1 . VSS $end
$var wire 1 h Zint $end
$upscope $end

$scope module FE_PHC24_n100 $end
$var wire 1 P I $end
$var wire 1 0 Z $end
$var wire 1 - VDD $end
$var wire 1 . VSS $end
$var wire 1 i Zint $end
$upscope $end

$scope module FE_PHC23_n90 $end
$var wire 1 O I $end
$var wire 1 1 Z $end
$var wire 1 - VDD $end
$var wire 1 . VSS $end
$var wire 1 j Zint $end
$upscope $end

$scope module FE_PHC22_n6 $end
$var wire 1 L I $end
$var wire 1 2 Z $end
$var wire 1 - VDD $end
$var wire 1 . VSS $end
$var wire 1 k Zint $end
$upscope $end

$scope module FE_PHC21_n5 $end
$var wire 1 K I $end
$var wire 1 3 Z $end
$var wire 1 - VDD $end
$var wire 1 . VSS $end
$var wire 1 l Zint $end
$upscope $end

$scope module FE_PHC20_n110 $end
$var wire 1 Q I $end
$var wire 1 4 Z $end
$var wire 1 - VDD $end
$var wire 1 . VSS $end
$var wire 1 m Zint $end
$upscope $end

$scope module FE_PHC19_n80 $end
$var wire 1 N I $end
$var wire 1 5 Z $end
$var wire 1 - VDD $end
$var wire 1 . VSS $end
$var wire 1 n Zint $end
$upscope $end

$scope module FE_PHC18_n120 $end
$var wire 1 R I $end
$var wire 1 6 Z $end
$var wire 1 - VDD $end
$var wire 1 . VSS $end
$var wire 1 o Zint $end
$upscope $end

$scope module FE_PHC17_n2 $end
$var wire 1 J I $end
$var wire 1 7 Z $end
$var wire 1 - VDD $end
$var wire 1 . VSS $end
$var wire 1 p Zint $end
$upscope $end

$scope module FE_PHC16_counter_out_7 $end
$var wire 1 8 I $end
$var wire 1 % Z $end
$var wire 1 - VDD $end
$var wire 1 . VSS $end
$var wire 1 q Zint $end
$upscope $end

$scope module FE_PHC14_counter_out_6 $end
$var wire 1 9 I $end
$var wire 1 & Z $end
$var wire 1 - VDD $end
$var wire 1 . VSS $end
$var wire 1 r Zint $end
$upscope $end

$scope module FE_PHC12_counter_out_3 $end
$var wire 1 : I $end
$var wire 1 ) Z $end
$var wire 1 - VDD $end
$var wire 1 . VSS $end
$var wire 1 s Zint $end
$upscope $end

$scope module FE_PHC10_counter_out_4 $end
$var wire 1 ; I $end
$var wire 1 ( Z $end
$var wire 1 - VDD $end
$var wire 1 . VSS $end
$var wire 1 t Zint $end
$upscope $end

$scope module FE_PHC8_counter_out_5 $end
$var wire 1 < I $end
$var wire 1 ' Z $end
$var wire 1 - VDD $end
$var wire 1 . VSS $end
$var wire 1 u Zint $end
$upscope $end

$scope module FE_PHC6_counter_out_2 $end
$var wire 1 = I $end
$var wire 1 * Z $end
$var wire 1 - VDD $end
$var wire 1 . VSS $end
$var wire 1 v Zint $end
$upscope $end

$scope module FE_PHC4_counter_out_1 $end
$var wire 1 > I $end
$var wire 1 + Z $end
$var wire 1 - VDD $end
$var wire 1 . VSS $end
$var wire 1 w Zint $end
$upscope $end

$scope module FE_PHC2_counter_out_0 $end
$var wire 1 ? I $end
$var wire 1 , Z $end
$var wire 1 - VDD $end
$var wire 1 . VSS $end
$var wire 1 x Zint $end
$upscope $end

$scope module FE_PHC0_rstn $end
$var wire 1 " I $end
$var wire 1 @ Z $end
$var wire 1 - VDD $end
$var wire 1 . VSS $end
$var wire 1 y Zint $end
$upscope $end

$scope module CTS_ccl_a_inv_00001 $end
$var wire 1 A I $end
$var wire 1 B ZN $end
$var wire 1 - VDD $end
$var wire 1 . VSS $end
$var wire 1 z ZNint $end
$upscope $end

$scope module CTS_csf_inv_00005 $end
$var wire 1 ! I $end
$var wire 1 A ZN $end
$var wire 1 - VDD $end
$var wire 1 . VSS $end
$var wire 1 { ZNint $end
$upscope $end

$scope module counter_reg_3_ $end
$var wire 1 5 D $end
$var wire 1 B CP $end
$var wire 1 Z SDN $end
$var wire 1 : Q $end
$var wire 1 - VDD $end
$var wire 1 . VSS $end
$var reg 1 | notifier $end
$var wire 1 } SDN_i $end
$var wire 1 ~ CDN $end
$var wire 1 !! Q_buf $end
$var wire 1 "! Q_pwr_net $end
$var wire 1 #! CP_check $end
$var wire 1 $! D_check $end
$var wire 1 %! CP_DEFCHK $end
$var wire 1 &! D_DEFCHK $end
$upscope $end

$scope module counter_reg_2_ $end
$var wire 1 1 D $end
$var wire 1 B CP $end
$var wire 1 Y SDN $end
$var wire 1 = Q $end
$var wire 1 - VDD $end
$var wire 1 . VSS $end
$var reg 1 '! notifier $end
$var wire 1 (! SDN_i $end
$var wire 1 )! CDN $end
$var wire 1 *! Q_buf $end
$var wire 1 +! Q_pwr_net $end
$var wire 1 ,! CP_check $end
$var wire 1 -! D_check $end
$var wire 1 .! CP_DEFCHK $end
$var wire 1 /! D_DEFCHK $end
$upscope $end

$scope module counter_reg_1_ $end
$var wire 1 0 D $end
$var wire 1 B CP $end
$var wire 1 Z SDN $end
$var wire 1 > Q $end
$var wire 1 - VDD $end
$var wire 1 . VSS $end
$var reg 1 0! notifier $end
$var wire 1 1! SDN_i $end
$var wire 1 2! CDN $end
$var wire 1 3! Q_buf $end
$var wire 1 4! Q_pwr_net $end
$var wire 1 5! CP_check $end
$var wire 1 6! D_check $end
$var wire 1 7! CP_DEFCHK $end
$var wire 1 8! D_DEFCHK $end
$upscope $end

$scope module counter_reg_0_ $end
$var wire 1 6 D $end
$var wire 1 B CP $end
$var wire 1 Y SDN $end
$var wire 1 ? Q $end
$var wire 1 - VDD $end
$var wire 1 . VSS $end
$var reg 1 9! notifier $end
$var wire 1 :! SDN_i $end
$var wire 1 ;! CDN $end
$var wire 1 <! Q_buf $end
$var wire 1 =! Q_pwr_net $end
$var wire 1 >! CP_check $end
$var wire 1 ?! D_check $end
$var wire 1 @! CP_DEFCHK $end
$var wire 1 A! D_DEFCHK $end
$upscope $end

$scope module counter_reg_4_ $end
$var wire 1 / D $end
$var wire 1 B CP $end
$var wire 1 Z SDN $end
$var wire 1 ; Q $end
$var wire 1 - VDD $end
$var wire 1 . VSS $end
$var reg 1 B! notifier $end
$var wire 1 C! SDN_i $end
$var wire 1 D! CDN $end
$var wire 1 E! Q_buf $end
$var wire 1 F! Q_pwr_net $end
$var wire 1 G! CP_check $end
$var wire 1 H! D_check $end
$var wire 1 I! CP_DEFCHK $end
$var wire 1 J! D_DEFCHK $end
$upscope $end

$scope module counter_reg_5_ $end
$var wire 1 2 D $end
$var wire 1 B CP $end
$var wire 1 Y SDN $end
$var wire 1 < Q $end
$var wire 1 - VDD $end
$var wire 1 . VSS $end
$var reg 1 K! notifier $end
$var wire 1 L! SDN_i $end
$var wire 1 M! CDN $end
$var wire 1 N! Q_buf $end
$var wire 1 O! Q_pwr_net $end
$var wire 1 P! CP_check $end
$var wire 1 Q! D_check $end
$var wire 1 R! CP_DEFCHK $end
$var wire 1 S! D_DEFCHK $end
$upscope $end

$scope module counter_reg_6_ $end
$var wire 1 3 D $end
$var wire 1 B CP $end
$var wire 1 Z SDN $end
$var wire 1 9 Q $end
$var wire 1 - VDD $end
$var wire 1 . VSS $end
$var reg 1 T! notifier $end
$var wire 1 U! SDN_i $end
$var wire 1 V! CDN $end
$var wire 1 W! Q_buf $end
$var wire 1 X! Q_pwr_net $end
$var wire 1 Y! CP_check $end
$var wire 1 Z! D_check $end
$var wire 1 [! CP_DEFCHK $end
$var wire 1 \! D_DEFCHK $end
$upscope $end

$scope module counter_reg_7_ $end
$var wire 1 4 D $end
$var wire 1 B CP $end
$var wire 1 Y SDN $end
$var wire 1 8 Q $end
$var wire 1 - VDD $end
$var wire 1 . VSS $end
$var reg 1 ]! notifier $end
$var wire 1 ^! SDN_i $end
$var wire 1 _! CDN $end
$var wire 1 `! Q_buf $end
$var wire 1 a! Q_pwr_net $end
$var wire 1 b! CP_check $end
$var wire 1 c! D_check $end
$var wire 1 d! CP_DEFCHK $end
$var wire 1 e! D_DEFCHK $end
$upscope $end

$scope module U15 $end
$var wire 1 , I $end
$var wire 1 S ZN $end
$var wire 1 - VDD $end
$var wire 1 . VSS $end
$var wire 1 f! ZNint $end
$upscope $end

$scope module U16 $end
$var wire 1 S I $end
$var wire 1 T ZN $end
$var wire 1 - VDD $end
$var wire 1 . VSS $end
$var wire 1 g! ZNint $end
$upscope $end

$scope module U17 $end
$var wire 1 $ I $end
$var wire 1 U ZN $end
$var wire 1 - VDD $end
$var wire 1 . VSS $end
$var wire 1 h! ZNint $end
$upscope $end

$scope module U18 $end
$var wire 1 U I $end
$var wire 1 V ZN $end
$var wire 1 - VDD $end
$var wire 1 . VSS $end
$var wire 1 i! ZNint $end
$upscope $end

$scope module U19 $end
$var wire 1 U I $end
$var wire 1 W ZN $end
$var wire 1 - VDD $end
$var wire 1 . VSS $end
$var wire 1 j! ZNint $end
$upscope $end

$scope module U20 $end
$var wire 1 @ I $end
$var wire 1 X ZN $end
$var wire 1 - VDD $end
$var wire 1 . VSS $end
$var wire 1 k! ZNint $end
$upscope $end

$scope module U21 $end
$var wire 1 X I $end
$var wire 1 Y ZN $end
$var wire 1 - VDD $end
$var wire 1 . VSS $end
$var wire 1 l! ZNint $end
$upscope $end

$scope module U22 $end
$var wire 1 X I $end
$var wire 1 Z ZN $end
$var wire 1 - VDD $end
$var wire 1 . VSS $end
$var wire 1 m! ZNint $end
$upscope $end

$scope module U23 $end
$var wire 1 7 I $end
$var wire 1 [ ZN $end
$var wire 1 - VDD $end
$var wire 1 . VSS $end
$var wire 1 n! ZNint $end
$upscope $end

$scope module U25 $end
$var wire 1 7 I $end
$var wire 1 \ Z $end
$var wire 1 - VDD $end
$var wire 1 . VSS $end
$var wire 1 o! Zint $end
$upscope $end

$scope module U26 $end
$var wire 1 7 I $end
$var wire 1 ] Z $end
$var wire 1 - VDD $end
$var wire 1 . VSS $end
$var wire 1 p! Zint $end
$upscope $end

$scope module U27 $end
$var wire 1 7 I $end
$var wire 1 g ZN $end
$var wire 1 - VDD $end
$var wire 1 . VSS $end
$var wire 1 q! ZNint $end
$upscope $end

$scope module U28 $end
$var wire 1 I A1 $end
$var wire 1 g A2 $end
$var wire 1 % B1 $end
$var wire 1 ] B2 $end
$var wire 1 V C $end
$var wire 1 Q Z $end
$var wire 1 - VDD $end
$var wire 1 . VSS $end
$var wire 1 r! A $end
$var wire 1 s! B $end
$var wire 1 t! Zint $end
$upscope $end

$scope module U29 $end
$var wire 1 + A1 $end
$var wire 1 T A2 $end
$var wire 1 ` Z $end
$var wire 1 - VDD $end
$var wire 1 . VSS $end
$var wire 1 u! Zint $end
$upscope $end

$scope module U30 $end
$var wire 1 H A1 $end
$var wire 1 g A2 $end
$var wire 1 & B1 $end
$var wire 1 \ B2 $end
$var wire 1 W C $end
$var wire 1 K Z $end
$var wire 1 - VDD $end
$var wire 1 . VSS $end
$var wire 1 v! A $end
$var wire 1 w! B $end
$var wire 1 x! Zint $end
$upscope $end

$scope module U31 $end
$var wire 1 G A1 $end
$var wire 1 g A2 $end
$var wire 1 ' B1 $end
$var wire 1 ] B2 $end
$var wire 1 V C $end
$var wire 1 L Z $end
$var wire 1 - VDD $end
$var wire 1 . VSS $end
$var wire 1 y! A $end
$var wire 1 z! B $end
$var wire 1 {! Zint $end
$upscope $end

$scope module U32 $end
$var wire 1 F A1 $end
$var wire 1 g A2 $end
$var wire 1 ( B1 $end
$var wire 1 \ B2 $end
$var wire 1 W C $end
$var wire 1 M Z $end
$var wire 1 - VDD $end
$var wire 1 . VSS $end
$var wire 1 |! A $end
$var wire 1 }! B $end
$var wire 1 ~! Zint $end
$upscope $end

$scope module U33 $end
$var wire 1 ^ A1 $end
$var wire 1 _ A2 $end
$var wire 1 !" B $end
$var wire 1 J ZN $end
$var wire 1 - VDD $end
$var wire 1 . VSS $end
$var wire 1 "" A1N $end
$var wire 1 #" A2N $end
$var wire 1 $" A $end
$var wire 1 %" ZNint $end
$upscope $end

$scope module U34 $end
$var wire 1 ( A1 $end
$var wire 1 ' A2 $end
$var wire 1 & A3 $end
$var wire 1 % A4 $end
$var wire 1 ^ ZN $end
$var wire 1 - VDD $end
$var wire 1 . VSS $end
$var wire 1 &" ZNint $end
$upscope $end

$scope module U35 $end
$var wire 1 , A1 $end
$var wire 1 + A2 $end
$var wire 1 * A3 $end
$var wire 1 ) A4 $end
$var wire 1 _ ZN $end
$var wire 1 - VDD $end
$var wire 1 . VSS $end
$var wire 1 '" ZNint $end
$upscope $end

$scope module U36 $end
$var wire 1 E A1 $end
$var wire 1 [ A2 $end
$var wire 1 ) B1 $end
$var wire 1 ] B2 $end
$var wire 1 V C $end
$var wire 1 N Z $end
$var wire 1 - VDD $end
$var wire 1 . VSS $end
$var wire 1 (" A $end
$var wire 1 )" B $end
$var wire 1 *" Zint $end
$upscope $end

$scope module U37 $end
$var wire 1 D A1 $end
$var wire 1 [ A2 $end
$var wire 1 * B1 $end
$var wire 1 \ B2 $end
$var wire 1 W C $end
$var wire 1 O Z $end
$var wire 1 - VDD $end
$var wire 1 . VSS $end
$var wire 1 +" A $end
$var wire 1 ," B $end
$var wire 1 -" Zint $end
$upscope $end

$scope module U38 $end
$var wire 1 C A1 $end
$var wire 1 [ A2 $end
$var wire 1 + B1 $end
$var wire 1 ] B2 $end
$var wire 1 V C $end
$var wire 1 P Z $end
$var wire 1 - VDD $end
$var wire 1 . VSS $end
$var wire 1 ." A $end
$var wire 1 /" B $end
$var wire 1 0" Zint $end
$upscope $end

$scope module U39 $end
$var wire 1 S A1 $end
$var wire 1 [ A2 $end
$var wire 1 T B1 $end
$var wire 1 \ B2 $end
$var wire 1 W C $end
$var wire 1 R Z $end
$var wire 1 - VDD $end
$var wire 1 . VSS $end
$var wire 1 1" A $end
$var wire 1 2" B $end
$var wire 1 3" Zint $end
$upscope $end

$scope module U40 $end
$var wire 1 ' I $end
$var wire 1 f ZN $end
$var wire 1 - VDD $end
$var wire 1 . VSS $end
$var wire 1 4" ZNint $end
$upscope $end

$scope module U41 $end
$var wire 1 T A1 $end
$var wire 1 + A2 $end
$var wire 1 ` B $end
$var wire 1 C ZN $end
$var wire 1 - VDD $end
$var wire 1 . VSS $end
$var wire 1 5" A1N $end
$var wire 1 6" A2N $end
$var wire 1 7" A $end
$var wire 1 8" ZNint $end
$upscope $end

$scope module U42 $end
$var wire 1 ` A1 $end
$var wire 1 * A2 $end
$var wire 1 a Z $end
$var wire 1 - VDD $end
$var wire 1 . VSS $end
$var wire 1 9" Zint $end
$upscope $end

$scope module U43 $end
$var wire 1 ` A1 $end
$var wire 1 * A2 $end
$var wire 1 a B $end
$var wire 1 D ZN $end
$var wire 1 - VDD $end
$var wire 1 . VSS $end
$var wire 1 :" A1N $end
$var wire 1 ;" A2N $end
$var wire 1 <" A $end
$var wire 1 =" ZNint $end
$upscope $end

$scope module U44 $end
$var wire 1 a A1 $end
$var wire 1 ) A2 $end
$var wire 1 b Z $end
$var wire 1 - VDD $end
$var wire 1 . VSS $end
$var wire 1 >" Zint $end
$upscope $end

$scope module U45 $end
$var wire 1 a A1 $end
$var wire 1 ) A2 $end
$var wire 1 b B $end
$var wire 1 E ZN $end
$var wire 1 - VDD $end
$var wire 1 . VSS $end
$var wire 1 ?" A1N $end
$var wire 1 @" A2N $end
$var wire 1 A" A $end
$var wire 1 B" ZNint $end
$upscope $end

$scope module U46 $end
$var wire 1 b A1 $end
$var wire 1 ( A2 $end
$var wire 1 c ZN $end
$var wire 1 - VDD $end
$var wire 1 . VSS $end
$var wire 1 C" ZNint $end
$upscope $end

$scope module U47 $end
$var wire 1 b A1 $end
$var wire 1 ( A2 $end
$var wire 1 c B $end
$var wire 1 F Z $end
$var wire 1 - VDD $end
$var wire 1 . VSS $end
$var wire 1 D" A $end
$var wire 1 E" Zint $end
$upscope $end

$scope module U48 $end
$var wire 1 c A1 $end
$var wire 1 f A2 $end
$var wire 1 d ZN $end
$var wire 1 - VDD $end
$var wire 1 . VSS $end
$var wire 1 F" ZNint $end
$upscope $end

$scope module U49 $end
$var wire 1 c A1 $end
$var wire 1 f A2 $end
$var wire 1 d B $end
$var wire 1 G ZN $end
$var wire 1 - VDD $end
$var wire 1 . VSS $end
$var wire 1 G" A $end
$var wire 1 H" ZNint $end
$upscope $end

$scope module U50 $end
$var wire 1 d A1 $end
$var wire 1 & A2 $end
$var wire 1 H ZN $end
$var wire 1 - VDD $end
$var wire 1 . VSS $end
$var wire 1 I" ZNint $end
$upscope $end

$scope module U51 $end
$var wire 1 & A1 $end
$var wire 1 d A2 $end
$var wire 1 e ZN $end
$var wire 1 - VDD $end
$var wire 1 . VSS $end
$var wire 1 J" ZNint $end
$upscope $end

$scope module U52 $end
$var wire 1 % A1 $end
$var wire 1 e A2 $end
$var wire 1 I Z $end
$var wire 1 - VDD $end
$var wire 1 . VSS $end
$var wire 1 K" Zint $end
$upscope $end

$scope module FILLER_T_1_76 $end
$var wire 1 - VDD $end
$var wire 1 . VSS $end
$upscope $end

$scope module FILLER_T_1_73 $end
$var wire 1 - VDD $end
$var wire 1 . VSS $end
$upscope $end

$scope module FILLER_T_1_72 $end
$var wire 1 - VDD $end
$var wire 1 . VSS $end
$upscope $end

$scope module FILLER_T_1_71 $end
$var wire 1 - VDD $end
$var wire 1 . VSS $end
$upscope $end

$scope module FILLER_T_1_70 $end
$var wire 1 - VDD $end
$var wire 1 . VSS $end
$upscope $end

$scope module FILLER_T_1_69 $end
$var wire 1 - VDD $end
$var wire 1 . VSS $end
$upscope $end

$scope module FILLER_T_1_65 $end
$var wire 1 - VDD $end
$var wire 1 . VSS $end
$upscope $end

$scope module FILLER_T_1_64 $end
$var wire 1 - VDD $end
$var wire 1 . VSS $end
$upscope $end

$scope module FILLER_T_1_61 $end
$var wire 1 - VDD $end
$var wire 1 . VSS $end
$upscope $end

$scope module FILLER_T_1_57 $end
$var wire 1 - VDD $end
$var wire 1 . VSS $end
$upscope $end

$scope module FILLER_T_1_55 $end
$var wire 1 - VDD $end
$var wire 1 . VSS $end
$upscope $end

$scope module FILLER_T_1_54 $end
$var wire 1 - VDD $end
$var wire 1 . VSS $end
$upscope $end

$scope module FILLER_T_1_49 $end
$var wire 1 - VDD $end
$var wire 1 . VSS $end
$upscope $end

$scope module FILLER_T_1_45 $end
$var wire 1 - VDD $end
$var wire 1 . VSS $end
$upscope $end

$scope module FILLER_T_1_44 $end
$var wire 1 - VDD $end
$var wire 1 . VSS $end
$upscope $end

$scope module FILLER_T_1_35 $end
$var wire 1 - VDD $end
$var wire 1 . VSS $end
$upscope $end

$scope module FILLER_T_1_34 $end
$var wire 1 - VDD $end
$var wire 1 . VSS $end
$upscope $end

$scope module FILLER_T_1_28 $end
$var wire 1 - VDD $end
$var wire 1 . VSS $end
$upscope $end

$scope module FILLER_T_1_25 $end
$var wire 1 - VDD $end
$var wire 1 . VSS $end
$upscope $end

$scope module FILLER_T_1_24 $end
$var wire 1 - VDD $end
$var wire 1 . VSS $end
$upscope $end

$scope module FILLER_T_1_18 $end
$var wire 1 - VDD $end
$var wire 1 . VSS $end
$upscope $end

$scope module FILLER_T_1_6 $end
$var wire 1 - VDD $end
$var wire 1 . VSS $end
$upscope $end

$scope module FILLER_T_1_4 $end
$var wire 1 - VDD $end
$var wire 1 . VSS $end
$upscope $end

$scope module FILLER_T_1_3 $end
$var wire 1 - VDD $end
$var wire 1 . VSS $end
$upscope $end
$upscope $end
$upscope $end
$upscope $end
$enddefinitions $end
#0
$dumpvars
x|
x'!
x0!
x9!
xB!
xK!
xT!
x]!
1-
0.
x%
x&
x'
x(
x)
x*
x+
x,
x/
x0
x1
x2
x3
x4
x5
x6
x7
x8
x9
x:
x;
x<
x=
x>
x?
x@
xA
xB
xC
xD
xE
xF
xG
xH
xI
xJ
xK
xL
xM
xN
xO
xP
xQ
xR
xS
xT
xU
xV
xW
xX
xY
xZ
x[
x\
x]
x^
x_
x`
xa
xb
xc
xd
xe
xf
xg
xh
xi
xj
xk
xl
xm
xn
xo
xp
xq
xr
xs
xt
xu
xv
xw
xx
xy
xz
x{
x}
1~
x!!
x"!
x#!
x$!
1%!
1&!
x(!
1)!
x*!
x+!
x,!
x-!
1.!
1/!
x1!
12!
x3!
x4!
x5!
x6!
17!
18!
x:!
1;!
x<!
x=!
x>!
x?!
1@!
1A!
xC!
1D!
xE!
xF!
xG!
xH!
1I!
1J!
xL!
1M!
xN!
xO!
xP!
xQ!
1R!
1S!
xU!
1V!
xW!
xX!
xY!
xZ!
1[!
1\!
x^!
1_!
x`!
xa!
xb!
xc!
1d!
1e!
xf!
xg!
xh!
xi!
xj!
xk!
xl!
xm!
xn!
xo!
xp!
xq!
xr!
xs!
xt!
xu!
xv!
xw!
xx!
xy!
xz!
x{!
x|!
x}!
x~!
x""
x#"
x$"
x%"
x&"
x'"
x("
x)"
x*"
x+"
x,"
x-"
x."
x/"
x0"
x1"
x2"
x3"
x4"
x5"
x6"
x7"
x8"
x9"
x:"
x;"
x<"
x="
x>"
x?"
x@"
xA"
xB"
xC"
xD"
xE"
xF"
xG"
xH"
xI"
xJ"
xK"
x!
x"
x#
x$
x!"
$end
#121
0$
1h!
#132
0!
1{
#141
0"
0#
0y
0!"
1%"
#142
1A
0z
#151
1U
0j!
0i!
#161
1J
1p
#162
0B
#191
0V
0W
#351
17
0q!
1p!
1o!
0n!
#371
0g
0|!
0y!
0v!
0r!
#381
0[
01"
0."
0+"
0("
#391
1\
1]
#511
0@
1k!
#541
1X
0m!
0l!
#601
0Z
0U!
0C!
01!
0}
0Z!
0Y!
0H!
0G!
06!
05!
0$!
0#!
0\!
0[!
0J!
0I!
08!
07!
0&!
0%!
1W!
1E!
13!
1!!
1X!
1F!
14!
1"!
#611
0Y
0^!
0L!
0:!
0(!
0c!
0b!
0Q!
0P!
0?!
0>!
0-!
0,!
0e!
0d!
0S!
0R!
0A!
0@!
0/!
0.!
1`!
1N!
1<!
1*!
1a!
1O!
1=!
1+!
#711
1:
1>
19
1s
1w
1r
#721
1?
1<
18
1;
1x
1u
1q
1t
#731
1=
1v
#1221
1&
1)
1+
1,
0J"
0&"
1w!
0@"
1>"
1)"
0'"
06"
1/"
1u!
0f!
1x!
1*"
10"
#1231
1(
1%
1'
0C"
1}!
1s!
04"
1z!
1~!
1t!
1{!
#1241
0e
1*
1K"
0;"
19"
1,"
1-"
#1251
0f
0S
0_
1F"
1g!
1#"
1$"
#1261
0^
1""
#1271
0c
1`
1b
0G"
0:"
1D"
1H"
0<"
1E"
1="
#1291
1T
1a
1K
05"
12"
0?"
1l
07"
13"
0A"
18"
1B"
#1301
1d
1L
1Q
1P
1I"
1k
1m
1i
#1311
1F
1G
1I
1N
1n
#1321
1D
1O
1M
1j
1h
#1331
1E
#1341
1H
1C
#1361
1R
1o
#1481
15
#1531
16
#1761
13
#1781
14
12
#1791
10
#1801
1/
11
#5132
1!
0{
#5142
0A
1z
#5162
1B
#10132
0!
1{
#10142
1A
0z
#10162
0B
#10171
1"
1y
#10641
1@
0k!
#10671
0X
1m!
1l!
#10741
1Z
1U!
1C!
11!
1}
1Z!
1Y!
1H!
1G!
16!
15!
1$!
1#!
1\!
1[!
1J!
1I!
18!
17!
1&!
1%!
#10751
1Y
1^!
1L!
1:!
1(!
1c!
1b!
1Q!
1P!
1?!
1>!
1-!
1,!
1e!
1d!
1S!
1R!
1A!
1@!
1/!
1.!
#15132
1!
0{
#15142
0A
1z
#15162
1B
#20132
0!
1{
#20141
0"
0y
#20142
1A
0z
#20162
0B
#20511
0@
1k!
#20541
1X
0m!
0l!
#20601
0Z
0U!
0C!
01!
0}
0Z!
0Y!
0H!
0G!
06!
05!
0$!
0#!
0\!
0[!
0J!
0I!
08!
07!
0&!
0%!
#20611
0Y
0^!
0L!
0:!
0(!
0c!
0b!
0Q!
0P!
0?!
0>!
0-!
0,!
0e!
0d!
0S!
0R!
0A!
0@!
0/!
0.!
#25132
1!
0{
#25142
0A
1z
#25162
1B
#30132
0!
1{
#30142
1A
0z
#30162
0B
#30171
1"
1y
#30641
1@
0k!
#30671
0X
1m!
1l!
#30741
1Z
1U!
1C!
11!
1}
1Z!
1Y!
1H!
1G!
16!
15!
1$!
1#!
1\!
1[!
1J!
1I!
18!
17!
1&!
1%!
#30751
1Y
1^!
1L!
1:!
1(!
1c!
1b!
1Q!
1P!
1?!
1>!
1-!
1,!
1e!
1d!
1S!
1R!
1A!
1@!
1/!
1.!
#35132
1!
0{
#35142
0A
1z
#35162
1B
#40132
0!
1{
#40142
1A
0z
#40162
0B
#45132
1!
0{
#45142
0A
1z
#45162
1B
#50132
0!
1{
#50142
1A
0z
#50162
0B
#50171
1#
1!"
0%"
#50201
0J
0p
#50371
07
1q!
0p!
0o!
1n!
#50401
1[
1g
1."
1+"
1("
1|!
1y!
1v!
1r!
#50411
0\
0]
02"
0,"
0}!
0w!
0/"
0)"
0z!
0s!
03"
#50511
0R
0o
#50671
06
#55132
1!
0{
#55142
0A
1z
#55162
1B
0<!
0=!
#55252
0?
0x
#55652
0,
1f!
#55682
1S
11"
0g!
13"
#55712
0T
15"
17"
08"
#55752
0C
1R
0."
1o
00"
#55842
0P
0i
#55922
16
#56232
00
#60132
0!
1{
#60142
1A
0z
#60162
0B
#65132
1!
0{
#65142
0A
1z
#65162
1B
1<!
03!
1=!
04!
#65242
1?
1x
#65262
0>
0w
#65672
0+
16"
0u!
#65722
0`
1:"
18"
1<"
0="
#65742
1C
1,
1."
0f!
10"
#65762
0D
0+"
0-"
#65772
0S
01"
1g!
03"
#65802
1P
1i
#65812
1T
05"
1u!
#65842
0R
0o
#65852
0O
0j
#65862
1`
0:"
08"
0<"
1="
#65882
0C
0."
00"
#65912
1D
1+"
1-"
#65952
0P
0i
#65972
1O
1j
#66002
06
#70132
0!
1{
#70142
1A
0z
#70162
0B
#75132
1!
0{
#75142
0A
1z
#75162
1B
0<!
0=!
#75252
0?
0x
#75652
0,
1f!
#75682
1S
11"
0g!
13"
#75712
0T
15"
0u!
#75752
1R
1o
#75762
0`
1:"
18"
1<"
0="
#75782
1C
1."
10"
#75802
0D
0+"
0-"
#75842
1P
1i
#75892
0O
0j
#75922
16
#76282
01
#76332
10
#80132
0!
1{
#80142
1A
0z
#80162
0B
#85132
1!
0{
#85142
0A
1z
#85162
1B
1<!
13!
0*!
1=!
14!
0+!
#85242
1>
1?
1w
1x
#85262
0=
0v
#85672
0*
1;"
09"
#85742
0a
1,
1?"
1="
0f!
1A"
0B"
#85752
1+
06"
1u!
#85772
0S
1D
01"
1g!
1+"
03"
1-"
#85782
0E
0("
0*"
#85802
1`
0:"
19"
08"
#85812
1T
05"
07"
18"
#85832
1O
1j
#85842
1a
0R
0?"
0="
0o
0A"
1B"
#85872
0D
0N
0+"
0n
0-"
#85882
1E
1("
1*"
#85942
0O
0j
#85952
1N
1n
#86002
06
#90132
0!
1{
#90142
1A
0z
#90162
0B
#95132
1!
0{
#95142
0A
1z
#95162
1B
0<!
0=!
#95252
0?
0x
#95652
0,
1f!
#95682
1S
11"
0g!
13"
#95712
0T
15"
17"
08"
#95752
0C
1R
0."
1o
00"
